{
    "folder_path": "C:/Users/<user>/AppData/Roaming/Firestorm_x64/<your id>/",
    "default_voice_id": "p311",
    "read_online_notifications": false,
    "people_configs":    [
        {
            "id": "player.id",
            "voice_id": "p300",
            "voice_nearby": true,
            "voice_im": true
        },
        {
            "id": "player2id",
            "voice_id": "p301",
            "voice_nearby": true,
            "voice_im": true
        }
    ]
}